Manual · FormsPreprocessors
…
Edit on GitHub
Maunual
FormsPreprocessors is a tiny preprocessing tool for questionnaire data (such as one obtained using Google Forms) to convert 'raw' data to ready-to-analyze style.  It provides functions of recoding, one-hot encoding, concatenating columns, and splitting multiple choice(MC) responses. Let's see how to use it.
Reading a Data
As FormsPreprocessors is built on the sholder of DataFrames.jl, read data into a DataFrame.

julia> using DataFrames, DataFramesMeta, Chain, CSV

julia> using FormsPreprocessors

julia> d = CSV.read("../../example/sample_data.csv", DataFrame)
20×15 DataFrame
 Row │ timestamp                    Gender             Age      Alcohol        ⋯
     │ String31                     String31           String7  String?        ⋯
─────┼──────────────────────────────────────────────────────────────────────────
   1 │ 2022/03/10 1:19:08 ?? GMT+9  Male               -19      missing        ⋯
   2 │ 2022/03/10 1:19:58 ?? GMT+9  Female             20-34    Cidre;Cognac
   3 │ 2022/03/10 1:20:27 ?? GMT+9  Non-binary         35-49    Beer;Whisky
   4 │ 2022/03/10 1:21:05 ?? GMT+9  Male               -19      missing
   5 │ 2022/03/10 1:21:49 ?? GMT+9  Prefer not to say  50-      Beer           ⋯
   6 │ 2022/03/10 1:22:26 ?? GMT+9  Asexual            -19      missing
   7 │ 2022/03/10 1:25:04 ?? GMT+9  Female             20-34    Beer;Cidre
   8 │ 2022/03/10 1:25:38 ?? GMT+9  Female             35-49    Sake
  ⋮  │              ⋮                       ⋮             ⋮                    ⋱
  14 │ 2022/03/10 1:33:09 ?? GMT+9  Male               35-49    Cidre;Cognac;W ⋯
  15 │ 2022/03/10 1:33:52 ?? GMT+9  Male               20-34    Sake
  16 │ 2022/03/10 1:34:49 ?? GMT+9  Female             20-34    None
  17 │ 2022/03/10 1:35:28 ?? GMT+9  Female             50-      Beer;Cidre;Win
  18 │ 2022/03/10 1:36:11 ?? GMT+9  Female             35-49    Beer;Cidre;Cog ⋯
  19 │ 2022/03/10 1:36:30 ?? GMT+9  Female             -19      missing
  20 │ 2022/03/10 1:37:04 ?? GMT+9  Male               20-34    Beer
                                                   12 columns and 5 rows omitted
…
